880211 532312 525
743110 692299 504
934772 505872 525
577866 895760 525
307005 699788 509
633460 843577 525
490847 955151 525
652150 414493 509
113718 773338 509
159640 917478 525
736732 540390 509
345960 186773 443
122076 79133 354
201869 17183 383
176819 85775 383
604460 814965 509
28048 309950 443
84559 36177 351
507232 308550 449
440105 934410 525
88259 284618 443
544186 841106 525
58701 222093 386
489870 773503 509
740531 1325 509
847485 200875 525
60930 874881 525
139103 42412 354
147997 340093 443
300849 359669 441
49508 354046 443
602662 311532 470
391767 819388 509
901241 78038 525
356377 483171 449
550465 984704 525
942442 25906 525
231448 414790 449
961934 802027 525
5243 517565 470
683207 380913 509
316908 972954 525
658416 607351 509
778086 662957 504
989087 565273 525
880433 521130 525
361946 437658 449
306350 979535 525
460823 999881 525
850162 606708 525
279072 841392 525
587954 161387 470
272806 959201 525
473971 789661 509
39354 66792 340
29378 271802 443
409535 352607 436
997550 947998 458
491655 38403 449
907715 675967 525
316896 873337 525
731979 132028 509
834082 512932 509
855531 51592 525
578739 546870 421
67171 534983 470
782629 572738 509
566835 609020 434
932022 970984 507
30372 254635 443
966806 204535 525
416768 647429 509
614692 435958 470
315534 209239 443
193827 81527 383
123762 247320 443
462236 602533 470
688121 533071 509
674081 751337 504
454738 564455 470
23462 548436 470
396557 140909 443
877907 879532 357
956027 179369 525
904360 489527 525
240365 258422 368
922995 279689 525
600439 628930 509
714936 260651 509
640114 80469 509
415758 838372 525
845605 97615 525
823842 849193 525
566464 400014 470
133297 261866 443
790129 180055 509
391637 203408 443
55369 405215 443
494980 720450 509
760515 150049 509
790499 465230 509
238001 480648 449
751559 457499 509
861707 23037 525
603616 828986 509
765011 742590 424
210838 578197 470
641499 332559 509
762519 133009 509
934000 979801 507
102952 609853 470
43613 79893 351
178418 901772 525
95312 631691 509
934914 715512 525
930600 867 525
355890 469760 449
732947 230670 509
796943 388850 509
152435 64834 375
323815 695809 509
112894 11779 354
108448 901315 525
314547 26512 443
423201 200562 449
306273 981054 525
456742 245465 449
53138 438423 449
443414 584160 470
480392 346942 449
965660 282117 525
107689 346788 443
886765 612487 525
952693 986163 458
380682 703679 509
821941 16230 509
267551 516701 470
66882 699004 509
594621 180954 470
322410 595396 470
512935 930792 525
778325 116701 509
970664 413080 525
929882 682593 525
700426 82935 509
59016 15797 340
552497 881273 525
333389 139205 443
67559 34952 340
758287 747474 424
266787 112018 443
800415 455258 509
816125 269760 509
113646 868930 525
648532 586739 509
709884 322159 509
10680 877139 525
221640 428614 449
148106 282217 443
643280 844013 525
623627 924092 525
98372 335415 443
829971 460663 509
669956 289243 509
215634 818799 509
722116 161485 509
18506 293025 443
571792 913885 525
215416 712136 509
208408 909374 525
207130 57782 383
164829 407142 443
742703 91392 509
640514 551530 509
475770 24876 449
657917 398274 509
312499 219539 443
887591 452501 525
418827 219385 449
962781 737342 525
475366 745978 509
814750 862953 525
387754 423467 449
464642 438978 444
751569 81916 509
88963 977549 525
728306 760472 424
35633 100987 351
985727 845228 507
861283 89103 525
201067 759430 509
271286 902488 525
193984 33527 383
650211 290848 509
320878 788830 509
36470 580880 470
826168 10722 509
1395 953085 525
581847 970500 525
7145 732054 509
486075 929175 525
627948 943998 525
251907 433469 449
525292 641598 509
49682 211026 383
983173 274025 525
262946 358649 441
728479 373842 509
45467 813131 509
11323 92816 351
802299 949317 525
774316 535158 509
954126 656353 525
212094 386800 443
560805 634649 509
516479 677424 509
609139 42451 470
626409 734658 504
343597 572716 470
783497 583454 509
501801 561866 470
725485 458374 509
833176 681186 504
962092 314929 525
987523 258427 525
355824 307600 441
366763 829760 509
632866 189858 509
378575 694260 509
98985 905781 525
49999 491277 449
157513 822378 509
56766 502010 449
560261 938444 525
563820 374670 470
101010 354138 443
518760 754763 509
715476 482741 509
340527 468397 449
126850 927314 525
203786 191577 360
432982 907967 525
657832 157960 509
645744 555476 509
144995 663549 509
144169 584308 470
825284 699991 504
671367 977884 525
679458 252767 509
36539 265004 443
672339 792299 504
707391 278668 509
